<svg xmlns="http://www.w3.org/2000/svg" width="39" height="23">
    <path fill="#777" fill-rule="evenodd" d="M38.609 18.808L20.398.4c-.26-.263-.559-.395-.898-.395-.339 0-.638.132-.899.395L.392 18.808a1.256 1.256 0 0 0-.391.909c0 .342.13.645.391.908L2.345 22.6c.261.264.56.395.899.395.339 0 .638-.131.899-.395L19.5 7.076 34.858 22.6c.26.264.56.395.898.395.339 0 .639-.131.899-.395l1.954-1.975c.26-.263.39-.566.39-.908 0-.342-.13-.646-.39-.909z"/>
</svg>
