<svg xmlns="http://www.w3.org/2000/svg" width="26" height="26">
    <path fill="#FFF" fill-rule="evenodd" d="M13 26C5.832 26 0 20.168 0 13 0 5.831 5.832 0 13 0s13 5.831 13 13c0 7.168-5.832 13-13 13zM13 .999C6.383.999 1 6.383 1 13c0 6.616 5.383 12 12 12 6.616 0 12-5.384 12-12C25 6.383 19.616.999 13 .999zm4.853 16.854a.495.495 0 0 1-.707 0L13 13.706l-4.147 4.147a.495.495 0 0 1-.707 0 .5.5 0 0 1 0-.707L12.293 13 8.146 8.853a.5.5 0 0 1 .707-.707L13 12.293l4.146-4.147a.499.499 0 0 1 .707 0 .499.499 0 0 1 0 .707L13.707 13l4.146 4.146a.499.499 0 0 1 0 .707z"/>
</svg>
