<svg xmlns="http://www.w3.org/2000/svg" width="50" height="52">
    <path fill="#F9CD3D" fill-rule="evenodd" d="M45.899 28.174c-4.026 9.829-10.789 17.768-20.101 23.597a1.51 1.51 0 0 1-1.596 0C14.89 45.942 8.127 38.002 4.101 28.174.74 19.969.016 12.171.001 7.075a1.518 1.518 0 0 1 .442-1.076 1.505 1.505 0 0 1 1.067-.444h.015a3.962 3.962 0 0 0 2.824-1.174 4.027 4.027 0 0 0 1.184-2.866c0-.402.159-.787.442-1.071A1.505 1.505 0 0 1 7.042 0h35.916c.401 0 .784.16 1.067.444.283.284.442.669.442 1.071 0 1.084.42 2.102 1.184 2.866a3.963 3.963 0 0 0 2.824 1.175h.015c.401 0 .784.159 1.067.443.284.285.443.672.442 1.076-.015 5.096-.739 12.894-4.1 21.099zm-2.38-21.649a7.028 7.028 0 0 1-1.909-3.496H8.39a7.036 7.036 0 0 1-1.909 3.496 6.967 6.967 0 0 1-3.442 1.896C3.326 18.951 6.775 36.838 25 48.691c18.225-11.853 21.674-29.74 21.961-40.27a6.967 6.967 0 0 1-3.442-1.896zM28.691 30.343l-1.475-2.447h-4.432l-1.475 2.447a1.507 1.507 0 0 1-1.291.731h-5.857a1.51 1.51 0 0 1-1.322-.784l-1.741-3.179a1.517 1.517 0 0 1 .594-2.057 1.506 1.506 0 0 1 2.049.597l1.312 2.394h4.114l1.475-2.448a1.51 1.51 0 0 1 1.291-.73h6.134c.528 0 1.018.277 1.291.73l1.475 2.448h4.114l1.312-2.394c.401-.732 1.319-1 2.049-.597.73.404.996 1.324.595 2.057l-1.742 3.179a1.51 1.51 0 0 1-1.322.784h-5.857a1.508 1.508 0 0 1-1.291-.731zm8.024-16.442c.556 0 1.006.453 1.006 1.01 0 .558-.45 1.01-1.006 1.01h-3.988a1.008 1.008 0 0 1-1.006-1.01c0-.557.451-1.01 1.006-1.01h3.988zm-2.117-2.288a6.087 6.087 0 0 0-5.256 3.046 1.509 1.509 0 0 1-2.062.552 1.518 1.518 0 0 1-.55-2.069 9.114 9.114 0 0 1 7.868-4.558 9.111 9.111 0 0 1 7.866 4.556c.418.724.172 1.65-.549 2.069a1.505 1.505 0 0 1-2.062-.552 6.09 6.09 0 0 0-5.255-3.044zM17.52 13.901c.556 0 1.006.453 1.006 1.01 0 .558-.45 1.01-1.006 1.01h-3.987a1.008 1.008 0 0 1-1.006-1.01c0-.557.45-1.01 1.006-1.01h3.987zm5.2 1.309a1.506 1.506 0 0 1-2.062-.552 6.087 6.087 0 0 0-5.255-3.045 6.087 6.087 0 0 0-5.256 3.046 1.507 1.507 0 0 1-2.061.553 1.518 1.518 0 0 1-.551-2.07 9.113 9.113 0 0 1 7.868-4.557 9.113 9.113 0 0 1 7.867 4.555c.417.724.171 1.65-.55 2.07zm.732 16.512a1.008 1.008 0 0 1-1.006-1.01c0-.558.45-1.01 1.006-1.01h3.096c.556 0 1.006.452 1.006 1.01s-.45 1.01-1.006 1.01h-3.096zM25 43.694l-2.929-10.17h5.858L25 43.694z"/>
</svg>
