<svg xmlns="http://www.w3.org/2000/svg" width="604.315" height="90.35" viewBox="0 0 604.315 90.35">
  <metadata><?xpacket begin="﻿" id="W5M0MpCehiHzreSzNTczkc9d"?>
<x:xmpmeta xmlns:x="adobe:ns:meta/" x:xmptk="Adobe XMP Core 5.6-c142 79.160924, 2017/07/13-01:06:39        ">
   <rdf:RDF xmlns:rdf="http://www.w3.org/1999/02/22-rdf-syntax-ns#">
      <rdf:Description rdf:about=""/>
   </rdf:RDF>
</x:xmpmeta>
                                                                                                    
                                                                                                    
                                                                                                    
                                                                                                    
                                                                                                    
                                                                                                    
                                                                                                    
                                                                                                    
                                                                                                    
                                                                                                    
                                                                                                    
                                                                                                    
                                                                                                    
                                                                                                    
                                                                                                    
                                                                                                    
                                                                                                    
                                                                                                    
                                                                                                    
                                                                                                    
                           
<?xpacket end="w"?></metadata>
<defs>
    <style>
      .cls-1 {
        fill: #f7f6f6;
        fill-rule: evenodd;
        opacity: 0.4;
      }
    </style>
  </defs>
  <path id="_-e-txt_economic" data-name="-e-txt_economic" class="cls-1" d="M590.97,8905.02a335.172,335.172,0,0,0,37.08-1.8v-14.88H594.57q-7.443,0-7.44-7.92v-12.24l35.16-.96v-14.04l-35.16-.96v-12.84q0-7.32,7.8-7.32h33.12v-14.88q-20.043-1.56-38.4-1.56a22.272,22.272,0,0,0-14.34,4.74q-5.94,4.74-5.94,15.54v49.56q0,11.88,6.48,15.72a29.1,29.1,0,0,0,15.12,3.84h0Zm82.318,0.12q17.28,0,27.96-3.48v-13.68a195.334,195.334,0,0,1-24,1.2q-7.56,0-11.4-2.4t-5.4-8.52q-1.561-6.12-1.56-18.36,0-12.36,1.74-18.54t5.58-8.4q3.839-2.22,11.04-2.22t13.8,0.6a79.226,79.226,0,0,1,10.2,1.44v-13.8a91.284,91.284,0,0,0-12.36-2.94,89.114,89.114,0,0,0-15.36-1.26q-10.922,0-17.88,3.78t-10.74,13.62q-3.78,9.84-3.78,27.6,0,18.48,3.66,28.38t10.5,13.44q6.84,3.54,18,3.54h0Zm75.96,0q13.078,0,20.82-3.48t11.7-13.2q3.96-9.72,3.96-28.32t-3.96-28.38q-3.96-9.78-11.7-13.38t-20.82-3.6q-12.96,0-20.76,3.6t-11.82,13.38q-4.022,9.78-4.02,28.38t3.96,28.32q3.96,9.72,11.76,13.2t20.88,3.48h0Zm0-15.96q-7.68,0-11.58-2.22t-5.58-8.34q-1.681-6.12-1.68-18.48,0-12.6,1.8-18.84t5.7-8.4q3.9-2.16,11.34-2.16,7.56,0,11.46,2.16t5.58,8.34q1.68,6.18,1.68,18.9,0,12.24-1.68,18.42t-5.58,8.4q-3.9,2.22-11.46,2.22h0Zm52.559,15.24h17.88v-58.56l37.08,58.56h14.28v-88.8h-17.76v58.56l-37.2-58.56h-14.28v88.8Zm120.6,0.72q13.077,0,20.82-3.48t11.7-13.2q3.959-9.72,3.96-28.32t-3.96-28.38q-3.96-9.78-11.7-13.38t-20.82-3.6q-12.96,0-20.76,3.6t-11.821,13.38q-4.022,9.78-4.019,28.38t3.959,28.32q3.962,9.72,11.761,13.2t20.88,3.48h0Zm0-15.96q-7.682,0-11.581-2.22t-5.579-8.34q-1.683-6.12-1.68-18.48,0-12.6,1.8-18.84t5.7-8.4q3.9-2.16,11.341-2.16,7.558,0,11.46,2.16t5.58,8.34q1.679,6.18,1.68,18.9,0,12.24-1.68,18.42t-5.58,8.4q-3.9,2.22-11.46,2.22h0Zm142.563,15.24-10.44-88.8h-16.92l-20.28,68.04-20.4-68.04h-17.04l-10.32,88.8h17.16l6.6-57.36,15.483,57.36h16.68l15.48-58.08,6.84,58.08h17.16Zm15.36,0h17.76v-88.8h-17.76v88.8Zm65.39,0.72q17.28,0,27.96-3.48v-13.68a195.323,195.323,0,0,1-24,1.2q-7.56,0-11.4-2.4t-5.4-8.52q-1.56-6.12-1.56-18.36,0-12.36,1.74-18.54t5.58-8.4q3.84-2.22,11.04-2.22t13.8,0.6a79.2,79.2,0,0,1,10.2,1.44v-13.8a91.248,91.248,0,0,0-12.36-2.94,89.105,89.105,0,0,0-15.36-1.26q-10.92,0-17.88,3.78t-10.74,13.62q-3.78,9.84-3.78,27.6,0,18.48,3.66,28.38t10.5,13.44q6.84,3.54,18,3.54h0Z" transform="translate(-569.375 -8814.78)"/>
</svg>
